Lab4/Auxiliar_restored/simulation/qsim/TopDE.msim.vcd
$comment
	File created using the following command:
		vcd file TopDE.msim.vcd -direction
$end
$date
	Fri Jul  7 13:49:55 2023
$end
$version
	ModelSim Version 2020.1
$end
$timescale
	1ps
$end

$scope module Controle_vlg_vec_tst $end
$var reg 1 ! iCLK $end
$var reg 7 " iOpCode [6:0] $end
$var reg 1 # iRST $end
$var wire 1 $ oALUOp [1] $end
$var wire 1 % oALUOp [0] $end
$var wire 1 & oEscreveIR $end
$var wire 1 ' oEscreveMem $end
$var wire 1 ( oEscrevePC $end
$var wire 1 ) oEscrevePCB $end
$var wire 1 * oEscrevePCCond $end
$var wire 1 + oEscreveReg $end
$var wire 1 , oIouD $end
$var wire 1 - oLeMem $end
$var wire 1 . oMem2Reg [1] $end
$var wire 1 / oMem2Reg [0] $end
$var wire 1 0 oOrigAULA [1] $end
$var wire 1 1 oOrigAULA [0] $end
$var wire 1 2 oOrigBULA [1] $end
$var wire 1 3 oOrigBULA [0] $end
$var wire 1 4 oOrigPC $end

$scope module i1 $end
$var wire 1 5 gnd $end
$var wire 1 6 vcc $end
$var wire 1 7 unknown $end
$var tri1 1 8 devclrn $end
$var tri1 1 9 devpor $end
$var tri1 1 : devoe $end
$var wire 1 ; ~QUARTUS_CREATED_GND~I_combout $end
$var wire 1 < iCLK~input_o $end
$var wire 1 = iCLK~inputCLKENA0_outclk $end
$var wire 1 > iOpCode[5]~input_o $end
$var wire 1 ? iOpCode[6]~input_o $end
$var wire 1 @ Selector15~1_combout $end
$var wire 1 A iOpCode[3]~input_o $end
$var wire 1 B iOpCode[0]~input_o $end
$var wire 1 C iOpCode[1]~input_o $end
$var wire 1 D Selector0~0_combout $end
$var wire 1 E iOpCode[4]~input_o $end
$var wire 1 F iOpCode[2]~input_o $end
$var wire 1 G Selector7~1_combout $end
$var wire 1 H Equal0~0_combout $end
$var wire 1 I Selector8~1_combout $end
$var wire 1 J Selector8~0_combout $end
$var wire 1 K iRST~input_o $end
$var wire 1 L estado.load_store~q $end
$var wire 1 M Selector9~0_combout $end
$var wire 1 N estado.load~q $end
$var wire 1 O Selector12~1_combout $end
$var wire 1 P Selector12~0_combout $end
$var wire 1 Q estado.tipo_r~q $end
$var wire 1 R estado.inicio~q $end
$var wire 1 S WideNor1~combout $end
$var wire 1 T estado.inicio~DUPLICATE_q $end
$var wire 1 U Selector7~0_combout $end
$var wire 1 V estado.decod~q $end
$var wire 1 W Selector15~0_combout $end
$var wire 1 X estado.jal~q $end
$var wire 1 Y estado.conclusao_tipo_r~q $end
$var wire 1 Z oMem2Reg~0_combout $end
$var wire 1 [ Selector14~1_combout $end
$var wire 1 \ Selector14~0_combout $end
$var wire 1 ] estado.beq~q $end
$var wire 1 ^ WideOr12~combout $end
$var wire 1 _ WideOr11~combout $end
$var wire 1 ` oOrigBULA~0_combout $end
$var wire 1 a oOrigPC~0_combout $end
$var wire 1 b estado.conclusao_lw~q $end
$var wire 1 c WideOr16~combout $end
$var wire 1 d WideNor1~0_combout $end
$var wire 1 e Selector11~0_combout $end
$var wire 1 f estado.store~q $end
$var wire 1 g oIouD~0_combout $end
$var wire 1 h oEscrevePC~0_combout $end
$upscope $end
$upscope $end
$enddefinitions $end
#0
$dumpvars
0!
b0 "
0#
0%
0$
1&
0'
1(
1)
0*
0+
0,
1-
0/
1.
01
10
13
02
04
05
16
x7
18
19
1:
0;
0<
0=
0>
0?
0@
0A
0B
0C
0D
0E
0F
1G
0H
0I
0J
0K
0L
0M
0N
0O
0P
0Q
0R
1S
0T
1U
0V
0W
0X
0Y
1Z
0[
0\
0]
0^
0_
1`
0a
0b
0c
0d
0e
0f
0g
1h
$end
#20000
1!
1<
1=
1V
1T
1R
0&
0)
1d
0`
1_
0h
0(
00
12
0-
#30000
b10 "
b11 "
1B
1C
1H
1D
1I
0U
1J
#40000
0!
0<
0=
#60000
1!
1<
1=
0V
1L
1^
1M
0J
03
11
#80000
0!
0<
0=
#100000
1!
1<
1=
1N
0L
1`
0_
0d
0^
0M
1g
13
1,
01
1-
10
02
#120000
b1 "
b0 "
0!
0B
0C
0<
0=
0H
0D
0I
#140000
1!
1<
1=
1b
0N
1d
0g
0S
1c
1+
0,
0-
#160000
0!
0<
0=
#180000
1!
1<
1=
0b
0T
0R
1&
1)
0d
1S
1h
1U
0c
0+
1(
1-
#200000
0!
0<
0=
#220000
1!
1<
1=
1V
1T
1R
0&
0)
1d
0`
1_
0h
0(
00
12
0-
#240000
0!
0<
0=
#260000
1!
1<
1=
#280000
0!
0<
0=
#300000
1!
1<
1=
#320000
0!
0<
0=
#340000
1!
1<
1=
#360000
0!
0<
0=
#380000
1!
1<
1=
#400000
0!
0<
0=
#420000
1!
1<
1=
#440000
0!
0<
0=
#460000
1!
1<
1=
#480000
0!
0<
0=
#500000
1!
1<
1=
#520000
0!
0<
0=
#540000
1!
1<
1=
#560000
0!
0<
0=
#580000
1!
1<
1=
#600000
0!
0<
0=
#620000
1!
1<
1=
#640000
0!
0<
0=
#660000
1!
1<
1=
#680000
0!
0<
0=
#700000
1!
1<
1=
#720000
0!
0<
0=
#740000
1!
1<
1=
#760000
0!
0<
0=
#780000
1!
1<
1=
#800000
0!
0<
0=
#820000
1!
1<
1=
#840000
0!
0<
0=
#860000
1!
1<
1=
#880000
0!
0<
0=
#900000
1!
1<
1=
#920000
0!
0<
0=
#940000
1!
1<
1=
#960000
0!
0<
0=
#980000
1!
1<
1=
